0.9965906	0.005271822	0.0004428327	0.00022530556	0.0014193058	0.9169172	2.0011063e-05	7.32934e-05	0.00013411045	0.027047336	6.626424e-08	1.5316585e-12	0.024243474	3.706595e-08	0.0007016063	1.3226338e-11	0.00023573637	1.8263423e-05
0.9990233	0.0008381903	0.00019854307	1.2322968e-05	0.00020495057	0.95974207	5.196988e-07	1.5440472e-06	4.2218567e-06	0.012866169	4.988382e-10	1.4568409e-15	0.032519072	1.1318558e-09	9.26488e-05	6.574743e-16	1.4904353e-05	1.3450451e-06
0.9878636	0.024196744	0.002539456	0.0021752715	0.044546127	0.01611337	8.49779e-05	0.8890163	0.00037920475	0.043379813	0.0019025803	5.960978e-11	6.570648e-07	7.048294e-11	0.0027556121	9.626543e-12	6.297601e-06	6.2520945e-07
0.99412996	0.007578999	0.0031114817	1.1328808e-05	0.048475385	0.0038560927	4.1086037e-09	0.0015955567	9.779012e-05	0.8591902	0.0018993616	0.0009729266	0.076296	1.6005414e-07	7.3563106e-06	2.2422236e-12	0.0009056926	4.001932e-05
0.9805423	0.019676208	0.0023070574	0.00012943149	0.003315419	0.007933617	2.847997e-05	7.955666e-05	4.7006047e-06	0.02366051	6.7494875e-06	0.0082271695	0.93139446	0.0038309693	4.5777917e-05	2.3776947e-10	0.0002938211	0.0003428161
0.9969825	0.0033548772	0.00038731098	6.180614e-06	0.00032040477	0.003630221	2.6375736e-07	7.411038e-06	6.489835e-08	0.011880606	1.8820806e-07	0.001964271	0.97915506	0.00011591034	1.02077e-06	4.914086e-15	1.2972079e-05	1.7798411e-05
0.99999917	3.852801e-06	1.7967386e-05	6.042401e-15	4.7396567e-09	3.7250586e-15	4.7692526e-14	3.417949e-14	6.761075e-16	1.2211122e-08	1.707727e-05	0.00039443374	0.0026817322	0.9986578	1.1488327e-11	3.4697946e-14	2.4086115e-09	3.0883668e-06
0.99982953	0.00055631995	0.00015079975	5.2129534e-10	4.9040855e-06	6.971433e-10	2.7104208e-09	1.3286275e-09	2.4432062e-10	6.902921e-06	4.108095e-05	0.003429085	0.02561137	0.97769845	3.218884e-08	2.0892441e-09	1.4098384e-06	0.00010203048
0.9704951	0.031213105	0.023971498	0.09785074	0.00038844347	0.05129233	0.45502368	0.003250122	0.0034776926	0.00023111701	0.0032319427	1.6765757e-07	0.00018319488	0.00088503957	0.06451896	0.02551505	0.02719149	0.0011034608
0.008028924	0.9928732	0.0052756667	0.5064721	0.0050549507	0.071125895	0.48255998	0.010340899	0.021588534	0.0011513531	2.3648909e-06	7.617551e-07	1.3392284e-05	4.606167e-06	0.0077553988	4.4002718e-08	0.00072312355	0.000119991746
0.0067365766	0.9936124	0.004573792	0.060725003	0.011136562	0.065912545	0.013989896	0.0035012066	0.8883847	0.0014643669	5.5129146e-09	0.000625968	8.9560024e-07	9.6172755e-08	3.7861228e-06	1.9022359e-08	3.385751e-06	1.6065407e-07
0.0073430836	0.9826986	0.006558597	0.0031636357	0.2954	0.029405206	3.8395763e-05	0.01933363	0.002840042	0.6531453	1.6087124e-06	0.001328975	0.015444756	1.7566577e-05	0.00078573823	3.142828e-14	0.0003464222	0.00044736266
0.014166862	0.9748155	0.005803257	0.001014024	0.08524513	0.055957973	6.3405023e-06	0.0191904	0.00048539042	0.77693135	5.00762e-06	0.00035592914	0.019940704	3.2661087e-06	0.0019224882	7.7651655e-16	0.0018423796	0.0038448572
0.0077373385	0.9814645	0.012550443	0.0044697523	0.009057939	0.004677832	0.00026136637	1.7619528e-05	0.0006313026	0.020541549	1.4244683e-06	0.6236598	0.20526963	0.12879714	4.8814203e-05	1.718652e-11	0.00038084388	0.0073788166
0.00024142861	0.99760777	1.3883556e-06	7.178637e-11	1.5713005e-05	1.7423223e-09	2.7108133e-13	0.0	9.235866e-16	6.176522e-07	1.4170505e-11	4.8177073e-11	0.0008010864	5.1777376e-13	5.7530815e-06	2.1242314e-23	0.99945474	6.251886e-05
0.00020322204	0.9989339	0.0015301704	7.8869616e-10	0.00015446544	1.1929651e-06	5.7785956e-06	1.693977e-33	4.5368022e-11	2.473229e-05	6.8258107e-12	0.0006066859	0.012098134	0.001439929	0.00017619133	5.582942e-21	0.00011856892	0.9765558
0.0008842051	0.0009688437	0.998142	2.0862239e-05	0.00033676624	0.00019261241	1.1683848e-08	1.7726367e-07	1.37597225e-11	0.03972873	1.5119151e-05	0.0036082864	0.97413254	6.2780523e-06	0.00016868114	7.031241e-30	0.00022536516	5.6882178e-05
0.0012821555	0.0013703108	0.9976717	0.0008060634	4.9623566e-08	0.0038434267	0.010311484	4.5899797e-05	1.256825e-10	3.969223e-06	2.0395668e-05	3.198667e-13	5.7329237e-07	6.943304e-07	0.9647199	2.946219e-26	0.0028823018	0.0022176504
